Lab5
…
matrix <- as.matrix(glove6b)
matrix_numeric <- apply(matrix, 2, as.numeric)

## Warning in apply(matrix, 2, as.numeric): NAs introduced by coercion

rownames(matrix_numeric) <- matrix[, 1]
matrix_numeric <- matrix_numeric[,-1]

Test them out with the cannonical word math equation on the GloVe
embeddings: “berlin” - “germany” + “france” = ?

words_collision <- matrix_numeric["berlin",] - matrix_numeric["germany",] + matrix_numeric["france",]
search_synonyms(matrix_numeric, words_collision)

## # A tibble: 400,000 × 2
##    token    similarity
##    <chr>         <dbl>
##  1 paris          34.4
##  2 france         31.5
##  3 french         28.0
##  4 de             28.0
##  5 le             26.6
##  6 london         25.4
##  7 la             24.3
##  8 brussels       23.3
##  9 berlin         23.3
## 10 lyon           22.2
## # ℹ 399,990 more rows
…
